1,Auron Limelick,A bodybuilder at day, writer at night. This man is eager to help people be their best selves and will often write about health.
2,Chad Brosky,An alpha male who never backs down from a challenge. Is not afraid to bully if necessary.
3,Amelie Newton,A mysterious woman who never talks in interviews and refuses to write a bio. All we know is taht her books are bangers!
4,Vasil Brokeback,An aggressive and inquisitive and blunt person who is genuinely interested in helping you