1,Fitness and Health: Debunking Myths,1,45,70,Health Fitness,Did you know that a lot of the things you hear about health are usually fake and mostly told to make profits off of you? Buy this book to find out all of the lies you have been told!,10,Online
2,A DeepDive into E-Sports; Why are Losers Making Money?,2,70,100,Gaming,While gamers and nerds alike were bullied back in the day they are viewed as celebritites today. How does this affect our society and how should we punish these people?,10,Physical
3,How Do You Talk With Humans?,3,90,140,Guides Self-Help Research Aliens Biology Social Dilemmas,What are humans? Why do we want to talk to them? What is socializing? Why do we feel love? Finally how do you talk? We researched these questions extensively and published our findings in this book,10,Online
4,What IS Wrong with you?,4,5,20,Guides Self-Help Research,You have a problem... Let us fix that.,10,Online