﻿1,Montreal Publishing,Alex Lamontagne,438-276-4653
2,Snow Peaks Publishing,Veritas Vasileiou,800-659-3154
3,Bookworm Publishing,Natalia Sarkissian,450-167-9123
4,FlatLands Publishing,Michelle Rodriguez,438-670-1435
